{

        "require": {
                "prefix": "req",
                "body": [
                        "if (!require(\"${1:package}\")) install.packages(\"${1:package}\")"
                ],
                "description": "smart installing packages"
        },


        "require_remotes": {
                "prefix": "req_rem",
                "body": [
                        "if (!require(\"remotes\")) install.packages(\"remotes\")",
                        "if (!require(\"${1:package}\")) install_github(\"${2:user}/${1:package}\")"
                ],
                "description": "smart installing packages"
        },

        "pak": {
                "prefix": "pak",
                "body": [
                        "if (!require(\"pak\")) install.packages(\"pak\", repos = \"https://r-lib.github.io/p/pak/dev/\")"
                ],
                "description": "another approach to package installation"
        },

        "print_inf": {
                "prefix": "print",
                "body": [
                        "print(n = Inf, width = Inf, n_extra = Inf)"
                ],
                "description": "print all tibble"
        }


}
